/scratch4/ckilby/ProductionOutput/Jan17_TTHbbLeptonic-02-04-23-01/GridDownload_sys/group.phys-higgs.mc15_13TeV.410004.PoHpp_ttbar_lep.e3836a766a821p2669.TTHbbL24231.2l.v1_out.root/group.phys-higgs.10200836._000001.out.root
/scratch4/ckilby/ProductionOutput/Jan17_TTHbbLeptonic-02-04-23-01/GridDownload_sys/group.phys-higgs.mc15_13TeV.410004.PoHpp_ttbar_lep.e3836a766a821p2669.TTHbbL24231.2l.v1_out.root/group.phys-higgs.10200836._000002.out.root
/scratch4/ckilby/ProductionOutput/Jan17_TTHbbLeptonic-02-04-23-01/GridDownload_sys/group.phys-higgs.mc15_13TeV.410004.PoHpp_ttbar_lep.e3836a766a821p2669.TTHbbL24231.2l.v1_out.root/group.phys-higgs.10200836._000003.out.root
/scratch4/ckilby/ProductionOutput/Jan17_TTHbbLeptonic-02-04-23-01/GridDownload_sys/group.phys-higgs.mc15_13TeV.410004.PoHpp_ttbar_lep.e3836a766a821p2669.TTHbbL24231.2l.v1_out.root/group.phys-higgs.10200836._000004.out.root
/scratch4/ckilby/ProductionOutput/Jan17_TTHbbLeptonic-02-04-23-01/GridDownload_sys/group.phys-higgs.mc15_13TeV.410004.PoHpp_ttbar_lep.e3836a766a821p2669.TTHbbL24231.2l.v1_out.root/group.phys-higgs.10200836._000005.out.root
