/scratch4/ckilby/ProductionOutput/Jan17_TTHbbLeptonic-02-04-23-01/GridDownload_sys/group.phys-higgs.mc15_13TeV.410003.aMCNloHpp_ttbar_lep.e4441a766a821p2669.TTHbbL24231.2l.v1_out.root/group.phys-higgs.10200832._000001.out.root
/scratch4/ckilby/ProductionOutput/Jan17_TTHbbLeptonic-02-04-23-01/GridDownload_sys/group.phys-higgs.mc15_13TeV.410003.aMCNloHpp_ttbar_lep.e4441a766a821p2669.TTHbbL24231.2l.v1_out.root/group.phys-higgs.10200832._000002.out.root
/scratch4/ckilby/ProductionOutput/Jan17_TTHbbLeptonic-02-04-23-01/GridDownload_sys/group.phys-higgs.mc15_13TeV.410003.aMCNloHpp_ttbar_lep.e4441a766a821p2669.TTHbbL24231.2l.v1_out.root/group.phys-higgs.10200832._000003.out.root
/scratch4/ckilby/ProductionOutput/Jan17_TTHbbLeptonic-02-04-23-01/GridDownload_sys/group.phys-higgs.mc15_13TeV.410003.aMCNloHpp_ttbar_lep.e4441a766a821p2669.TTHbbL24231.2l.v1_out.root/group.phys-higgs.10200832._000004.out.root
/scratch4/ckilby/ProductionOutput/Jan17_TTHbbLeptonic-02-04-23-01/GridDownload_sys/group.phys-higgs.mc15_13TeV.410003.aMCNloHpp_ttbar_lep.e4441a766a821p2669.TTHbbL24231.2l.v1_out.root/group.phys-higgs.10200832._000005.out.root
/scratch4/ckilby/ProductionOutput/Jan17_TTHbbLeptonic-02-04-23-01/GridDownload_sys/group.phys-higgs.mc15_13TeV.410003.aMCNloHpp_ttbar_lep.e4441a766a821p2669.TTHbbL24231.2l.v1_out.root/group.phys-higgs.10200832._000006.out.root
/scratch4/ckilby/ProductionOutput/Jan17_TTHbbLeptonic-02-04-23-01/GridDownload_sys/group.phys-higgs.mc15_13TeV.410003.aMCNloHpp_ttbar_lep.e4441a766a821p2669.TTHbbL24231.2l.v1_out.root/group.phys-higgs.10200832._000007.out.root
/scratch4/ckilby/ProductionOutput/Jan17_TTHbbLeptonic-02-04-23-01/GridDownload_sys/group.phys-higgs.mc15_13TeV.410003.aMCNloHpp_ttbar_lep.e4441a766a821p2669.TTHbbL24231.2l.v1_out.root/group.phys-higgs.10200832._000008.out.root
/scratch4/ckilby/ProductionOutput/Jan17_TTHbbLeptonic-02-04-23-01/GridDownload_sys/group.phys-higgs.mc15_13TeV.410003.aMCNloHpp_ttbar_lep.e4441a766a821p2669.TTHbbL24231.2l.v1_out.root/group.phys-higgs.10200832._000009.out.root
/scratch4/ckilby/ProductionOutput/Jan17_TTHbbLeptonic-02-04-23-01/GridDownload_sys/group.phys-higgs.mc15_13TeV.410003.aMCNloHpp_ttbar_lep.e4441a766a821p2669.TTHbbL24231.2l.v1_out.root/group.phys-higgs.10200832._000010.out.root
/scratch4/ckilby/ProductionOutput/Jan17_TTHbbLeptonic-02-04-23-01/GridDownload_sys/group.phys-higgs.mc15_13TeV.410003.aMCNloHpp_ttbar_lep.e4441a766a821p2669.TTHbbL24231.2l.v1_out.root/group.phys-higgs.10200832._000011.out.root
/scratch4/ckilby/ProductionOutput/Jan17_TTHbbLeptonic-02-04-23-01/GridDownload_sys/group.phys-higgs.mc15_13TeV.410003.aMCNloHpp_ttbar_lep.e4441a766a821p2669.TTHbbL24231.2l.v1_out.root/group.phys-higgs.10200832._000012.out.root
/scratch4/ckilby/ProductionOutput/Jan17_TTHbbLeptonic-02-04-23-01/GridDownload_sys/group.phys-higgs.mc15_13TeV.410003.aMCNloHpp_ttbar_lep.e4441a766a821p2669.TTHbbL24231.2l.v1_out.root/group.phys-higgs.10200832._000013.out.root
/scratch4/ckilby/ProductionOutput/Jan17_TTHbbLeptonic-02-04-23-01/GridDownload_sys/group.phys-higgs.mc15_13TeV.410003.aMCNloHpp_ttbar_lep.e4441a766a821p2669.TTHbbL24231.2l.v1_out.root/group.phys-higgs.10200832._000014.out.root
