/scratch4/ckilby/ProductionOutput/Jan17_TTHbbLeptonic-02-04-23-01/GridDownload_sys/group.phys-higgs.mc15_13TeV.361063.She_llll.e3836s2608r7725p2669.TTHbbL24231.2l_sys.v1_out.root/group.phys-higgs.10228198._000001.out.root
/scratch4/ckilby/ProductionOutput/Jan17_TTHbbLeptonic-02-04-23-01/GridDownload_sys/group.phys-higgs.mc15_13TeV.361063.She_llll.e3836s2608r7725p2669.TTHbbL24231.2l_sys.v1_out.root/group.phys-higgs.10228198._000002.out.root
/scratch4/ckilby/ProductionOutput/Jan17_TTHbbLeptonic-02-04-23-01/GridDownload_sys/group.phys-higgs.mc15_13TeV.361063.She_llll.e3836s2608r7725p2669.TTHbbL24231.2l_sys.v1_out.root/group.phys-higgs.10228198._000003.out.root
/scratch4/ckilby/ProductionOutput/Jan17_TTHbbLeptonic-02-04-23-01/GridDownload_sys/group.phys-higgs.mc15_13TeV.361064.She_lllvSFMinus.e3836s2608r7725p2669.TTHbbL24231.2l_sys.v1_out.root/group.phys-higgs.10228202._000001.out.root
/scratch4/ckilby/ProductionOutput/Jan17_TTHbbLeptonic-02-04-23-01/GridDownload_sys/group.phys-higgs.mc15_13TeV.361064.She_lllvSFMinus.e3836s2608r7725p2669.TTHbbL24231.2l_sys.v1_out.root/group.phys-higgs.10228202._000002.out.root
/scratch4/ckilby/ProductionOutput/Jan17_TTHbbLeptonic-02-04-23-01/GridDownload_sys/group.phys-higgs.mc15_13TeV.361065.She_lllvOFMinus.e3836s2608r7725p2669.TTHbbL24231.2l_sys.v1_out.root/group.phys-higgs.10228205._000001.out.root
/scratch4/ckilby/ProductionOutput/Jan17_TTHbbLeptonic-02-04-23-01/GridDownload_sys/group.phys-higgs.mc15_13TeV.361065.She_lllvOFMinus.e3836s2608r7725p2669.TTHbbL24231.2l_sys.v1_out.root/group.phys-higgs.10228205._000002.out.root
/scratch4/ckilby/ProductionOutput/Jan17_TTHbbLeptonic-02-04-23-01/GridDownload_sys/group.phys-higgs.mc15_13TeV.361066.She_lllvSFPlus.e3836s2608r7725p2669.TTHbbL24231.2l_sys.v1_out.root/group.phys-higgs.10228209._000001.out.root
/scratch4/ckilby/ProductionOutput/Jan17_TTHbbLeptonic-02-04-23-01/GridDownload_sys/group.phys-higgs.mc15_13TeV.361066.She_lllvSFPlus.e3836s2608r7725p2669.TTHbbL24231.2l_sys.v1_out.root/group.phys-higgs.10228209._000002.out.root
/scratch4/ckilby/ProductionOutput/Jan17_TTHbbLeptonic-02-04-23-01/GridDownload_sys/group.phys-higgs.mc15_13TeV.361067.She_lllvOFPlus.e3836s2608r7725p2669.TTHbbL24231.2l_sys.v1_out.root/group.phys-higgs.10228212._000001.out.root
/scratch4/ckilby/ProductionOutput/Jan17_TTHbbLeptonic-02-04-23-01/GridDownload_sys/group.phys-higgs.mc15_13TeV.361067.She_lllvOFPlus.e3836s2608r7725p2669.TTHbbL24231.2l_sys.v1_out.root/group.phys-higgs.10228212._000002.out.root
/scratch4/ckilby/ProductionOutput/Jan17_TTHbbLeptonic-02-04-23-01/GridDownload_sys/group.phys-higgs.mc15_13TeV.361068.She_llvv.e3836s2608r7725p2669.TTHbbL24231.2l_sys.v1_out.root/group.phys-higgs.10228216._000001.out.root
/scratch4/ckilby/ProductionOutput/Jan17_TTHbbLeptonic-02-04-23-01/GridDownload_sys/group.phys-higgs.mc15_13TeV.361068.She_llvv.e3836s2608r7725p2669.TTHbbL24231.2l_sys.v1_out.root/group.phys-higgs.10228216._000002.out.root
/scratch4/ckilby/ProductionOutput/Jan17_TTHbbLeptonic-02-04-23-01/GridDownload_sys/group.phys-higgs.mc15_13TeV.361068.She_llvv.e3836s2608r7725p2669.TTHbbL24231.2l_sys.v1_out.root/group.phys-higgs.10228216._000003.out.root
/scratch4/ckilby/ProductionOutput/Jan17_TTHbbLeptonic-02-04-23-01/GridDownload_sys/group.phys-higgs.mc15_13TeV.361070.She_llvvjj_ss_EW6.e3836s2608r7725p2669.TTHbbL24231.2l_sys.v1_out.root/group.phys-higgs.10228219._000001.out.root
/scratch4/ckilby/ProductionOutput/Jan17_TTHbbLeptonic-02-04-23-01/GridDownload_sys/group.phys-higgs.mc15_13TeV.361071.She_lllvjj_EW6.e3836s2608r7772p2669.TTHbbL24231.2l_sys.v1_out.root/group.phys-higgs.10228223._000001.out.root
/scratch4/ckilby/ProductionOutput/Jan17_TTHbbLeptonic-02-04-23-01/GridDownload_sys/group.phys-higgs.mc15_13TeV.361072.She_lllljj_EW6.e3836s2608r7772p2669.TTHbbL24231.2l_sys.v1_out.root/group.phys-higgs.10228226._000001.out.root
/scratch4/ckilby/ProductionOutput/Jan17_TTHbbLeptonic-02-04-23-01/GridDownload_sys/group.phys-higgs.mc15_13TeV.361072.She_lllljj_EW6.e3836s2608r7772p2669.TTHbbL24231.2l_sys.v1_out.root/group.phys-higgs.10228226._000002.out.root
/scratch4/ckilby/ProductionOutput/Jan17_TTHbbLeptonic-02-04-23-01/GridDownload_sys/group.phys-higgs.mc15_13TeV.361073.She_ggllll.e3836s2608r7772p2669.TTHbbL24231.2l_sys.v1_out.root/group.phys-higgs.10228230._000001.out.root
/scratch4/ckilby/ProductionOutput/Jan17_TTHbbLeptonic-02-04-23-01/GridDownload_sys/group.phys-higgs.mc15_13TeV.361073.She_ggllll.e3836s2608r7772p2669.TTHbbL24231.2l_sys.v1_out.root/group.phys-higgs.10228230._000002.out.root
/scratch4/ckilby/ProductionOutput/Jan17_TTHbbLeptonic-02-04-23-01/GridDownload_sys/group.phys-higgs.mc15_13TeV.361077.She_ggllvv.e4641s2726r7772p2669.TTHbbL24231.2l_sys.v1_out.root/group.phys-higgs.10228234._000002.out.root
/scratch4/ckilby/ProductionOutput/Jan17_TTHbbLeptonic-02-04-23-01/GridDownload_sys/group.phys-higgs.mc15_13TeV.361091.She_WplvWmqqimpr.e4607s2726r7725p2669.TTHbbL24231.2l_sys.v1_out.root/group.phys-higgs.10228237._000001.out.root
/scratch4/ckilby/ProductionOutput/Jan17_TTHbbLeptonic-02-04-23-01/GridDownload_sys/group.phys-higgs.mc15_13TeV.361092.She_WpqqWmlvimpr.e4607s2726r7725p2669.TTHbbL24231.2l_sys.v1_out.root/group.phys-higgs.10228242._000001.out.root
/scratch4/ckilby/ProductionOutput/Jan17_TTHbbLeptonic-02-04-23-01/GridDownload_sys/group.phys-higgs.mc15_13TeV.361092.She_WpqqWmlvimpr.e4607s2726r7725p2669.TTHbbL24231.2l_sys.v1_out.root/group.phys-higgs.10228242._000002.out.root
/scratch4/ckilby/ProductionOutput/Jan17_TTHbbLeptonic-02-04-23-01/GridDownload_sys/group.phys-higgs.mc15_13TeV.361093.She_WlvZqqimpr.e4607s2726r7725p2669.TTHbbL24231.2l_sys.v1_out.root/group.phys-higgs.10228245._000001.out.root
/scratch4/ckilby/ProductionOutput/Jan17_TTHbbLeptonic-02-04-23-01/GridDownload_sys/group.phys-higgs.mc15_13TeV.361094.She_WqqZllimpr.e4607s2726r7725p2669.TTHbbL24231.2l_sys.v1_out.root/group.phys-higgs.10228249._000001.out.root
/scratch4/ckilby/ProductionOutput/Jan17_TTHbbLeptonic-02-04-23-01/GridDownload_sys/group.phys-higgs.mc15_13TeV.361095.She_WqqZvvimpr.e4607s2726r7772p2669.TTHbbL24231.2l_sys.v1_out.root/group.phys-higgs.10228252._000001.out.root
/scratch4/ckilby/ProductionOutput/Jan17_TTHbbLeptonic-02-04-23-01/GridDownload_sys/group.phys-higgs.mc15_13TeV.361096.She_ZqqZllimpr.e4607s2726r7725p2669.TTHbbL24231.2l_sys.v1_out.root/group.phys-higgs.10228258._000001.out.root
/scratch4/ckilby/ProductionOutput/Jan17_TTHbbLeptonic-02-04-23-01/GridDownload_sys/group.phys-higgs.mc15_13TeV.361097.She_ZqqZvvimpr.e4607s2726r7772p2669.TTHbbL24231.2l_sys.v1_out.root/group.phys-higgs.10228262._000001.out.root
