/scratch4/ckilby/ProductionOutput/Jan17_TTHbbLeptonic-02-04-23-01/GridDownload_sys/group.phys-higgs.mc15_13TeV.341177.aMCNloHpp_ttH125_dil.e4277s2608r7772p2669.TTHbbL24231.2l.v1_out.root/group.phys-higgs.10200907._000001.out.root
/scratch4/ckilby/ProductionOutput/Jan17_TTHbbLeptonic-02-04-23-01/GridDownload_sys/group.phys-higgs.mc15_13TeV.341177.aMCNloHpp_ttH125_dil.e4277s2608r7772p2669.TTHbbL24231.2l.v1_out.root/group.phys-higgs.10200907._000002.out.root
/scratch4/ckilby/ProductionOutput/Jan17_TTHbbLeptonic-02-04-23-01/GridDownload_sys/group.phys-higgs.mc15_13TeV.341270.aMCNloHpp_ttH125_slep.e4277s2608r7772p2669.TTHbbL24231.2l.v1_out.root/group.phys-higgs.10200911._000001.out.root
/scratch4/ckilby/ProductionOutput/Jan17_TTHbbLeptonic-02-04-23-01/GridDownload_sys/group.phys-higgs.mc15_13TeV.341271.aMCNloHpp_ttH125_allhad.e4277s2608r7772p2669.TTHbbL24231.2l.v1_out.root/group.phys-higgs.10200919._000001.out.root
