/scratch4/ckilby/ProductionOutput/Jan17_TTHbbLeptonic-02-04-23-01/GridDownload_sys/user.ckilby.mc15_13TeV.410275.aMCNloP8_ttbar_dil_bfil.e5465a766a821p2952.TTHbbL24231.2l_sys.v3_out.root/user.ckilby.10606833._000001.out.root
/scratch4/ckilby/ProductionOutput/Jan17_TTHbbLeptonic-02-04-23-01/GridDownload_sys/user.ckilby.mc15_13TeV.410275.aMCNloP8_ttbar_dil_bfil.e5465a766a821p2952.TTHbbL24231.2l_sys.v3_out.root/user.ckilby.10606833._000002.out.root
/scratch4/ckilby/ProductionOutput/Jan17_TTHbbLeptonic-02-04-23-01/GridDownload_sys/user.ckilby.mc15_13TeV.410275.aMCNloP8_ttbar_dil_bfil.e5465a766a821p2952.TTHbbL24231.2l_sys.v3_out.root/user.ckilby.10606833._000003.out.root
/scratch4/ckilby/ProductionOutput/Jan17_TTHbbLeptonic-02-04-23-01/GridDownload_sys/user.ckilby.mc15_13TeV.410275.aMCNloP8_ttbar_dil_bfil.e5465a766a821p2952.TTHbbL24231.2l_sys.v3_out.root/user.ckilby.10606833._000004.out.root
/scratch4/ckilby/ProductionOutput/Jan17_TTHbbLeptonic-02-04-23-01/GridDownload_sys/user.ckilby.mc15_13TeV.410275.aMCNloP8_ttbar_dil_bfil.e5465a766a821p2952.TTHbbL24231.2l_sys.v3_out.root/user.ckilby.10606833._000005.out.root
/scratch4/ckilby/ProductionOutput/Jan17_TTHbbLeptonic-02-04-23-01/GridDownload_sys/user.ckilby.mc15_13TeV.410275.aMCNloP8_ttbar_dil_bfil.e5465a766a821p2952.TTHbbL24231.2l_sys.v3_out.root/user.ckilby.10606833._000006.out.root
/scratch4/ckilby/ProductionOutput/Jan17_TTHbbLeptonic-02-04-23-01/GridDownload_sys/user.ckilby.mc15_13TeV.410275.aMCNloP8_ttbar_dil_bfil.e5465a766a821p2952.TTHbbL24231.2l_sys.v3_out.root/user.ckilby.10606833._000007.out.root
/scratch4/ckilby/ProductionOutput/Jan17_TTHbbLeptonic-02-04-23-01/GridDownload_sys/user.ckilby.mc15_13TeV.410275.aMCNloP8_ttbar_dil_bfil.e5465a766a821p2952.TTHbbL24231.2l_sys.v3_out.root/user.ckilby.10606833._000008.out.root
/scratch4/ckilby/ProductionOutput/Jan17_TTHbbLeptonic-02-04-23-01/GridDownload_sys/user.ckilby.mc15_13TeV.410275.aMCNloP8_ttbar_dil_bfil.e5465a766a821p2952.TTHbbL24231.2l_sys.v3_out.root/user.ckilby.10606833._000009.out.root
/scratch4/ckilby/ProductionOutput/Jan17_TTHbbLeptonic-02-04-23-01/GridDownload_sys/user.ckilby.mc15_13TeV.410275.aMCNloP8_ttbar_dil_bfil.e5465a766a821p2952.TTHbbL24231.2l_sys.v3_out.root/user.ckilby.10606833._000010.out.root
/scratch4/ckilby/ProductionOutput/Jan17_TTHbbLeptonic-02-04-23-01/GridDownload_sys/user.ckilby.mc15_13TeV.410275.aMCNloP8_ttbar_dil_bfil.e5465a766a821p2952.TTHbbL24231.2l_sys.v3_out.root/user.ckilby.10606833._000011.out.root
/scratch4/ckilby/ProductionOutput/Jan17_TTHbbLeptonic-02-04-23-01/GridDownload_sys/user.ckilby.mc15_13TeV.410275.aMCNloP8_ttbar_dil_bfil.e5465a766a821p2952.TTHbbL24231.2l_sys.v3_out.root/user.ckilby.10606833._000012.out.root
/scratch4/ckilby/ProductionOutput/Jan17_TTHbbLeptonic-02-04-23-01/GridDownload_sys/user.ckilby.mc15_13TeV.410275.aMCNloP8_ttbar_dil_bfil.e5465a766a821p2952.TTHbbL24231.2l_sys.v3_out.root/user.ckilby.10606833._000013.out.root
/scratch4/ckilby/ProductionOutput/Jan17_TTHbbLeptonic-02-04-23-01/GridDownload_sys/user.ckilby.mc15_13TeV.410275.aMCNloP8_ttbar_dil_bfil.e5465a766a821p2952.TTHbbL24231.2l_sys.v3_out.root/user.ckilby.10606833._000014.out.root
/scratch4/ckilby/ProductionOutput/Jan17_TTHbbLeptonic-02-04-23-01/GridDownload_sys/user.ckilby.mc15_13TeV.410275.aMCNloP8_ttbar_dil_bfil.e5465a766a821p2952.TTHbbL24231.2l_sys.v3_out.root/user.ckilby.10606833._000016.out.root
/scratch4/ckilby/ProductionOutput/Jan17_TTHbbLeptonic-02-04-23-01/GridDownload_sys/user.ckilby.mc15_13TeV.410275.aMCNloP8_ttbar_dil_bfil.e5465a766a821p2952.TTHbbL24231.2l_sys.v3_out.root/user.ckilby.10606833._000017.out.root
/scratch4/ckilby/ProductionOutput/Jan17_TTHbbLeptonic-02-04-23-01/GridDownload_sys/user.ckilby.mc15_13TeV.410275.aMCNloP8_ttbar_dil_bfil.e5465a766a821p2952.TTHbbL24231.2l_sys.v3_out.root/user.ckilby.10606833._000018.out.root
/scratch4/ckilby/ProductionOutput/Jan17_TTHbbLeptonic-02-04-23-01/GridDownload_sys/user.ckilby.mc15_13TeV.410275.aMCNloP8_ttbar_dil_bfil.e5465a766a821p2952.TTHbbL24231.2l_sys.v3_out.root/user.ckilby.10606833._000019.out.root
/scratch4/ckilby/ProductionOutput/Jan17_TTHbbLeptonic-02-04-23-01/GridDownload_sys/user.ckilby.mc15_13TeV.410275.aMCNloP8_ttbar_dil_bfil.e5465a766a821p2952.TTHbbL24231.2l_sys.v3_out.root/user.ckilby.10606833._000020.out.root
/scratch4/ckilby/ProductionOutput/Jan17_TTHbbLeptonic-02-04-23-01/GridDownload_sys/user.ckilby.mc15_13TeV.410275.aMCNloP8_ttbar_dil_bfil.e5465a766a821p2952.TTHbbL24231.2l_sys.v3_out.root/user.ckilby.10606833._000021.out.root
/scratch4/ckilby/ProductionOutput/Jan17_TTHbbLeptonic-02-04-23-01/GridDownload_sys/user.ckilby.mc15_13TeV.410275.aMCNloP8_ttbar_dil_bfil.e5465a766a821p2952.TTHbbL24231.2l_sys.v3_out.root/user.ckilby.10606833._000022.out.root
/scratch4/ckilby/ProductionOutput/Jan17_TTHbbLeptonic-02-04-23-01/GridDownload_sys/user.ckilby.mc15_13TeV.410275.aMCNloP8_ttbar_dil_bfil.e5465a766a821p2952.TTHbbL24231.2l_sys.v3_out.root/user.ckilby.10606833._000023.out.root
/scratch4/ckilby/ProductionOutput/Jan17_TTHbbLeptonic-02-04-23-01/GridDownload_sys/user.ckilby.mc15_13TeV.410275.aMCNloP8_ttbar_dil_bfil.e5465a766a821p2952.TTHbbL24231.2l_sys.v3_out.root/user.ckilby.10606833._000024.out.root
/scratch4/ckilby/ProductionOutput/Jan17_TTHbbLeptonic-02-04-23-01/GridDownload_sys/user.ckilby.mc15_13TeV.410275.aMCNloP8_ttbar_dil_bfil.e5465a766a821p2952.TTHbbL24231.2l_sys.v3_out.root/user.ckilby.10606833._000025.out.root
/scratch4/ckilby/ProductionOutput/Jan17_TTHbbLeptonic-02-04-23-01/GridDownload_sys/user.ckilby.mc15_13TeV.410275.aMCNloP8_ttbar_dil_bfil.e5465a766a821p2952.TTHbbL24231.2l_sys.v3_out.root/user.ckilby.10606833._000026.out.root
/scratch4/ckilby/ProductionOutput/Jan17_TTHbbLeptonic-02-04-23-01/GridDownload_sys/user.ckilby.mc15_13TeV.410275.aMCNloP8_ttbar_dil_bfil.e5465a766a821p2952.TTHbbL24231.2l_sys.v3_out.root/user.ckilby.10606833._000027.out.root
/scratch4/ckilby/ProductionOutput/Jan17_TTHbbLeptonic-02-04-23-01/GridDownload_sys/user.ckilby.mc15_13TeV.410275.aMCNloP8_ttbar_dil_bfil.e5465a766a821p2952.TTHbbL24231.2l_sys.v3_out.root/user.ckilby.10606833._000028.out.root
/scratch4/ckilby/ProductionOutput/Jan17_TTHbbLeptonic-02-04-23-01/GridDownload_sys/user.ckilby.mc15_13TeV.410275.aMCNloP8_ttbar_dil_bfil.e5465a766a821p2952.TTHbbL24231.2l_sys.v3_out.root/user.ckilby.10606833._000029.out.root
/scratch4/ckilby/ProductionOutput/Jan17_TTHbbLeptonic-02-04-23-01/GridDownload_sys/user.ckilby.mc15_13TeV.410275.aMCNloP8_ttbar_dil_bfil.e5465a766a821p2952.TTHbbL24231.2l_sys.v3_out.root/user.ckilby.10606833._000030.out.root
/scratch4/ckilby/ProductionOutput/Jan17_TTHbbLeptonic-02-04-23-01/GridDownload_sys/user.ckilby.mc15_13TeV.410275.aMCNloP8_ttbar_dil_bfil.e5465a766a821p2952.TTHbbL24231.2l_sys.v3_out.root/user.ckilby.10606833._000031.out.root
/scratch4/ckilby/ProductionOutput/Jan17_TTHbbLeptonic-02-04-23-01/GridDownload_sys/user.ckilby.mc15_13TeV.410275.aMCNloP8_ttbar_dil_bfil.e5465a766a821p2952.TTHbbL24231.2l_sys.v3_out.root/user.ckilby.10606833._000032.out.root
/scratch4/ckilby/ProductionOutput/Jan17_TTHbbLeptonic-02-04-23-01/GridDownload_sys/user.ckilby.mc15_13TeV.410275.aMCNloP8_ttbar_dil_bfil.e5465a766a821p2952.TTHbbL24231.2l_sys.v3_out.root/user.ckilby.10606833._000033.out.root
/scratch4/ckilby/ProductionOutput/Jan17_TTHbbLeptonic-02-04-23-01/GridDownload_sys/user.ckilby.mc15_13TeV.410275.aMCNloP8_ttbar_dil_bfil.e5465a766a821p2952.TTHbbL24231.2l_sys.v3_out.root/user.ckilby.10606833._000034.out.root
/scratch4/ckilby/ProductionOutput/Jan17_TTHbbLeptonic-02-04-23-01/GridDownload_sys/user.ckilby.mc15_13TeV.410275.aMCNloP8_ttbar_dil_bfil.e5465a766a821p2952.TTHbbL24231.2l_sys.v3_out.root/user.ckilby.10606833._000035.out.root
/scratch4/ckilby/ProductionOutput/Jan17_TTHbbLeptonic-02-04-23-01/GridDownload_sys/user.ckilby.mc15_13TeV.410275.aMCNloP8_ttbar_dil_bfil.e5465a766a821p2952.TTHbbL24231.2l_sys.v3_out.root/user.ckilby.10606833._000040.out.root
/scratch4/ckilby/ProductionOutput/Jan17_TTHbbLeptonic-02-04-23-01/GridDownload_sys/user.ckilby.mc15_13TeV.410275.aMCNloP8_ttbar_dil_bfil.e5465a766a821p2952.TTHbbL24231.2l_sys.v3_out.root/user.ckilby.10606833._000041.out.root
/scratch4/ckilby/ProductionOutput/Jan17_TTHbbLeptonic-02-04-23-01/GridDownload_sys/user.ckilby.mc15_13TeV.410275.aMCNloP8_ttbar_dil_bfil.e5465a766a821p2952.TTHbbL24231.2l_sys.v3_out.root/user.ckilby.10606833._000042.out.root
/scratch4/ckilby/ProductionOutput/Jan17_TTHbbLeptonic-02-04-23-01/GridDownload_sys/user.ckilby.mc15_13TeV.410275.aMCNloP8_ttbar_dil_bfil.e5465a766a821p2952.TTHbbL24231.2l_sys.v3_out.root/user.ckilby.10606833._000045.out.root
/scratch4/ckilby/ProductionOutput/Jan17_TTHbbLeptonic-02-04-23-01/GridDownload_sys/user.ckilby.mc15_13TeV.410275.aMCNloP8_ttbar_dil_bfil.e5465a766a821p2952.TTHbbL24231.2l_sys.v3_out.root/user.ckilby.10606833._000046.out.root
/scratch4/ckilby/ProductionOutput/Jan17_TTHbbLeptonic-02-04-23-01/GridDownload_sys/user.ckilby.mc15_13TeV.410275.aMCNloP8_ttbar_dil_bfil.e5465a766a821p2952.TTHbbL24231.2l_sys.v3_out.root/user.ckilby.10606833._000047.out.root
/scratch4/ckilby/ProductionOutput/Jan17_TTHbbLeptonic-02-04-23-01/GridDownload_sys/user.ckilby.mc15_13TeV.410275.aMCNloP8_ttbar_dil_bfil.e5465a766a821p2952.TTHbbL24231.2l_sys.v3_out.root/user.ckilby.10606833._000048.out.root
/scratch4/ckilby/ProductionOutput/Jan17_TTHbbLeptonic-02-04-23-01/GridDownload_sys/user.ckilby.mc15_13TeV.410275.aMCNloP8_ttbar_dil_bfil.e5465a766a821p2952.TTHbbL24231.2l_sys.v3_out.root/user.ckilby.10606833._000049.out.root
/scratch4/ckilby/ProductionOutput/Jan17_TTHbbLeptonic-02-04-23-01/GridDownload_sys/user.ckilby.mc15_13TeV.410275.aMCNloP8_ttbar_dil_bfil.e5465a766a821p2952.TTHbbL24231.2l_sys.v3_out.root/user.ckilby.10606833._000050.out.root
/scratch4/ckilby/ProductionOutput/Jan17_TTHbbLeptonic-02-04-23-01/GridDownload_sys/user.ckilby.mc15_13TeV.410275.aMCNloP8_ttbar_dil_bfil.e5465a766a821p2952.TTHbbL24231.2l_sys.v3_out.root/user.ckilby.10606833._000051.out.root
/scratch4/ckilby/ProductionOutput/Jan17_TTHbbLeptonic-02-04-23-01/GridDownload_sys/user.ckilby.mc15_13TeV.410275.aMCNloP8_ttbar_dil_bfil.e5465a766a821p2952.TTHbbL24231.2l_sys.v3_out.root/user.ckilby.10606833._000052.out.root
/scratch4/ckilby/ProductionOutput/Jan17_TTHbbLeptonic-02-04-23-01/GridDownload_sys/user.ckilby.mc15_13TeV.410275.aMCNloP8_ttbar_dil_bfil.e5465a766a821p2952.TTHbbL24231.2l_sys.v3_out.root/user.ckilby.10606833._000053.out.root
/scratch4/ckilby/ProductionOutput/Jan17_TTHbbLeptonic-02-04-23-01/GridDownload_sys/user.ckilby.mc15_13TeV.410275.aMCNloP8_ttbar_dil_bfil.e5465a766a821p2952.TTHbbL24231.2l_sys.v3_out.root/user.ckilby.10606833._000054.out.root
/scratch4/ckilby/ProductionOutput/Jan17_TTHbbLeptonic-02-04-23-01/GridDownload_sys/user.ckilby.mc15_13TeV.410275.aMCNloP8_ttbar_dil_bfil.e5465a766a821p2952.TTHbbL24231.2l_sys.v3_out.root/user.ckilby.10606833._000055.out.root
/scratch4/ckilby/ProductionOutput/Jan17_TTHbbLeptonic-02-04-23-01/GridDownload_sys/user.ckilby.mc15_13TeV.410275.aMCNloP8_ttbar_dil_bfil.e5465a766a821p2952.TTHbbL24231.2l_sys.v3_out.root/user.ckilby.10606833._000056.out.root
/scratch4/ckilby/ProductionOutput/Jan17_TTHbbLeptonic-02-04-23-01/GridDownload_sys/user.ckilby.mc15_13TeV.410275.aMCNloP8_ttbar_dil_bfil.e5465a766a821p2952.TTHbbL24231.2l_sys.v3_out.root/user.ckilby.10606833._000057.out.root
/scratch4/ckilby/ProductionOutput/Jan17_TTHbbLeptonic-02-04-23-01/GridDownload_sys/user.ckilby.mc15_13TeV.410275.aMCNloP8_ttbar_dil_bfil.e5465a766a821p2952.TTHbbL24231.2l_sys.v3_out.root/user.ckilby.10606833._000058.out.root
/scratch4/ckilby/ProductionOutput/Jan17_TTHbbLeptonic-02-04-23-01/GridDownload_sys/user.ckilby.mc15_13TeV.410275.aMCNloP8_ttbar_dil_bfil.e5465a766a821p2952.TTHbbL24231.2l_sys.v3_out.root/user.ckilby.10606833._000059.out.root
/scratch4/ckilby/ProductionOutput/Jan17_TTHbbLeptonic-02-04-23-01/GridDownload_sys/user.ckilby.mc15_13TeV.410275.aMCNloP8_ttbar_dil_bfil.e5465a766a821p2952.TTHbbL24231.2l_sys.v3_out.root/user.ckilby.10606833._000060.out.root
/scratch4/ckilby/ProductionOutput/Jan17_TTHbbLeptonic-02-04-23-01/GridDownload_sys/user.ckilby.mc15_13TeV.410275.aMCNloP8_ttbar_dil_bfil.e5465a766a821p2952.TTHbbL24231.2l_sys.v3_out.root/user.ckilby.10606833._000061.out.root
/scratch4/ckilby/ProductionOutput/Jan17_TTHbbLeptonic-02-04-23-01/GridDownload_sys/user.ckilby.mc15_13TeV.410275.aMCNloP8_ttbar_dil_bfil.e5465a766a821p2952.TTHbbL24231.2l_sys.v3_out.root/user.ckilby.10606833._000062.out.root
/scratch4/ckilby/ProductionOutput/Jan17_TTHbbLeptonic-02-04-23-01/GridDownload_sys/user.ckilby.mc15_13TeV.410275.aMCNloP8_ttbar_dil_bfil.e5465a766a821p2952.TTHbbL24231.2l_sys.v3_out.root/user.ckilby.10606833._000063.out.root
/scratch4/ckilby/ProductionOutput/Jan17_TTHbbLeptonic-02-04-23-01/GridDownload_sys/user.ckilby.mc15_13TeV.410275.aMCNloP8_ttbar_dil_bfil.e5465a766a821p2952.TTHbbL24231.2l_sys.v3_out.root/user.ckilby.10606833._000064.out.root
/scratch4/ckilby/ProductionOutput/Jan17_TTHbbLeptonic-02-04-23-01/GridDownload_sys/user.ckilby.mc15_13TeV.410275.aMCNloP8_ttbar_dil_bfil.e5465a766a821p2952.TTHbbL24231.2l_sys.v3_out.root/user.ckilby.10606833._000065.out.root
/scratch4/ckilby/ProductionOutput/Jan17_TTHbbLeptonic-02-04-23-01/GridDownload_sys/user.ckilby.mc15_13TeV.410275.aMCNloP8_ttbar_dil_bfil.e5465a766a821p2952.TTHbbL24231.2l_sys.v3_out.root/user.ckilby.10606833._000067.out.root
/scratch4/ckilby/ProductionOutput/Jan17_TTHbbLeptonic-02-04-23-01/GridDownload_sys/user.ckilby.mc15_13TeV.410275.aMCNloP8_ttbar_dil_bfil.e5465a766a821p2952.TTHbbL24231.2l_sys.v3_out.root/user.ckilby.10606833._000068.out.root
/scratch4/ckilby/ProductionOutput/Jan17_TTHbbLeptonic-02-04-23-01/GridDownload_sys/user.ckilby.mc15_13TeV.410275.aMCNloP8_ttbar_dil_bfil.e5465a766a821p2952.TTHbbL24231.2l_sys.v3_out.root/user.ckilby.10606833._000069.out.root
/scratch4/ckilby/ProductionOutput/Jan17_TTHbbLeptonic-02-04-23-01/GridDownload_sys/user.ckilby.mc15_13TeV.410275.aMCNloP8_ttbar_dil_bfil.e5465a766a821p2952.TTHbbL24231.2l_sys.v3_out.root/user.ckilby.10606833._000074.out.root
/scratch4/ckilby/ProductionOutput/Jan17_TTHbbLeptonic-02-04-23-01/GridDownload_sys/user.ckilby.mc15_13TeV.410275.aMCNloP8_ttbar_dil_bfil.e5465a766a821p2952.TTHbbL24231.2l_sys.v3_out.root/user.ckilby.10606833._000076.out.root
/scratch4/ckilby/ProductionOutput/Jan17_TTHbbLeptonic-02-04-23-01/GridDownload_sys/user.ckilby.mc15_13TeV.410275.aMCNloP8_ttbar_dil_bfil.e5465a766a821p2952.TTHbbL24231.2l_sys.v3_out.root/user.ckilby.10606833._000077.out.root
/scratch4/ckilby/ProductionOutput/Jan17_TTHbbLeptonic-02-04-23-01/GridDownload_sys/user.ckilby.mc15_13TeV.410275.aMCNloP8_ttbar_dil_bfil.e5465a766a821p2952.TTHbbL24231.2l_sys.v3_out.root/user.ckilby.10606833._000078.out.root
/scratch4/ckilby/ProductionOutput/Jan17_TTHbbLeptonic-02-04-23-01/GridDownload_sys/user.ckilby.mc15_13TeV.410275.aMCNloP8_ttbar_dil_bfil.e5465a766a821p2952.TTHbbL24231.2l_sys.v3_out.root/user.ckilby.10606833._000079.out.root
/scratch4/ckilby/ProductionOutput/Jan17_TTHbbLeptonic-02-04-23-01/GridDownload_sys/user.ckilby.mc15_13TeV.410275.aMCNloP8_ttbar_dil_bfil.e5465a766a821p2952.TTHbbL24231.2l_sys.v3_out.root/user.ckilby.10606833._000085.out.root
/scratch4/ckilby/ProductionOutput/Jan17_TTHbbLeptonic-02-04-23-01/GridDownload_sys/user.ckilby.mc15_13TeV.410275.aMCNloP8_ttbar_dil_bfil.e5465a766a821p2952.TTHbbL24231.2l_sys.v3_out.root/user.ckilby.10606833._000086.out.root
/scratch4/ckilby/ProductionOutput/Jan17_TTHbbLeptonic-02-04-23-01/GridDownload_sys/user.ckilby.mc15_13TeV.410275.aMCNloP8_ttbar_dil_bfil.e5465a766a821p2952.TTHbbL24231.2l_sys.v3_out.root/user.ckilby.10606833._000087.out.root
/scratch4/ckilby/ProductionOutput/Jan17_TTHbbLeptonic-02-04-23-01/GridDownload_sys/user.ckilby.mc15_13TeV.410275.aMCNloP8_ttbar_dil_bfil.e5465a766a821p2952.TTHbbL24231.2l_sys.v3_out.root/user.ckilby.10606833._000088.out.root
/scratch4/ckilby/ProductionOutput/Jan17_TTHbbLeptonic-02-04-23-01/GridDownload_sys/user.ckilby.mc15_13TeV.410275.aMCNloP8_ttbar_dil_bfil.e5465a766a821p2952.TTHbbL24231.2l_sys.v3_out.root/user.ckilby.10606833._000089.out.root
/scratch4/ckilby/ProductionOutput/Jan17_TTHbbLeptonic-02-04-23-01/GridDownload_sys/user.ckilby.mc15_13TeV.410275.aMCNloP8_ttbar_dil_bfil.e5465a766a821p2952.TTHbbL24231.2l_sys.v3_out.root/user.ckilby.10606833._000090.out.root
/scratch4/ckilby/ProductionOutput/Jan17_TTHbbLeptonic-02-04-23-01/GridDownload_sys/user.ckilby.mc15_13TeV.410275.aMCNloP8_ttbar_dil_bfil.e5465a766a821p2952.TTHbbL24231.2l_sys.v3_out.root/user.ckilby.10606833._000091.out.root
/scratch4/ckilby/ProductionOutput/Jan17_TTHbbLeptonic-02-04-23-01/GridDownload_sys/user.ckilby.mc15_13TeV.410275.aMCNloP8_ttbar_dil_bfil.e5465a766a821p2952.TTHbbL24231.2l_sys.v3_out.root/user.ckilby.10606833._000092.out.root
/scratch4/ckilby/ProductionOutput/Jan17_TTHbbLeptonic-02-04-23-01/GridDownload_sys/user.ckilby.mc15_13TeV.410275.aMCNloP8_ttbar_dil_bfil.e5465a766a821p2952.TTHbbL24231.2l_sys.v3_out.root/user.ckilby.10606833._000093.out.root
/scratch4/ckilby/ProductionOutput/Jan17_TTHbbLeptonic-02-04-23-01/GridDownload_sys/user.ckilby.mc15_13TeV.410275.aMCNloP8_ttbar_dil_bfil.e5465a766a821p2952.TTHbbL24231.2l_sys.v3_out.root/user.ckilby.10606833._000094.out.root
/scratch4/ckilby/ProductionOutput/Jan17_TTHbbLeptonic-02-04-23-01/GridDownload_sys/user.ckilby.mc15_13TeV.410275.aMCNloP8_ttbar_dil_bfil.e5465a766a821p2952.TTHbbL24231.2l_sys.v3_out.root/user.ckilby.10606833._000095.out.root
/scratch4/ckilby/ProductionOutput/Jan17_TTHbbLeptonic-02-04-23-01/GridDownload_sys/user.ckilby.mc15_13TeV.410275.aMCNloP8_ttbar_dil_bfil.e5465a766a821p2952.TTHbbL24231.2l_sys.v3_out.root/user.ckilby.10606833._000096.out.root
/scratch4/ckilby/ProductionOutput/Jan17_TTHbbLeptonic-02-04-23-01/GridDownload_sys/user.ckilby.mc15_13TeV.410275.aMCNloP8_ttbar_dil_bfil.e5465a766a821p2952.TTHbbL24231.2l_sys.v3_out.root/user.ckilby.10606833._000097.out.root
/scratch4/ckilby/ProductionOutput/Jan17_TTHbbLeptonic-02-04-23-01/GridDownload_sys/user.ckilby.mc15_13TeV.410275.aMCNloP8_ttbar_dil_bfil.e5465a766a821p2952.TTHbbL24231.2l_sys.v3_out.root/user.ckilby.10606833._000098.out.root
/scratch4/ckilby/ProductionOutput/Jan17_TTHbbLeptonic-02-04-23-01/GridDownload_sys/user.ckilby.mc15_13TeV.410275.aMCNloP8_ttbar_dil_bfil.e5465a766a821p2952.TTHbbL24231.2l_sys.v3_out.root/user.ckilby.10606833._000099.out.root
/scratch4/ckilby/ProductionOutput/Jan17_TTHbbLeptonic-02-04-23-01/GridDownload_sys/user.ckilby.mc15_13TeV.410275.aMCNloP8_ttbar_dil_bfil.e5465a766a821p2952.TTHbbL24231.2l_sys.v3_out.root/user.ckilby.10606833._000100.out.root
/scratch4/ckilby/ProductionOutput/Jan17_TTHbbLeptonic-02-04-23-01/GridDownload_sys/user.ckilby.mc15_13TeV.410275.aMCNloP8_ttbar_dil_bfil.e5465a766a821p2952.TTHbbL24231.2l_sys.v3_out.root/user.ckilby.10606833._000101.out.root
/scratch4/ckilby/ProductionOutput/Jan17_TTHbbLeptonic-02-04-23-01/GridDownload_sys/user.ckilby.mc15_13TeV.410275.aMCNloP8_ttbar_dil_bfil.e5465a766a821p2952.TTHbbL24231.2l_sys.v3_out.root/user.ckilby.10606833._000102.out.root
/scratch4/ckilby/ProductionOutput/Jan17_TTHbbLeptonic-02-04-23-01/GridDownload_sys/user.ckilby.mc15_13TeV.410275.aMCNloP8_ttbar_dil_bfil.e5465a766a821p2952.TTHbbL24231.2l_sys.v3_out.root/user.ckilby.10606833._000103.out.root
/scratch4/ckilby/ProductionOutput/Jan17_TTHbbLeptonic-02-04-23-01/GridDownload_sys/user.ckilby.mc15_13TeV.410275.aMCNloP8_ttbar_dil_bfil.e5465a766a821p2952.TTHbbL24231.2l_sys.v3_out.root/user.ckilby.10606833._000104.out.root
/scratch4/ckilby/ProductionOutput/Jan17_TTHbbLeptonic-02-04-23-01/GridDownload_sys/user.ckilby.mc15_13TeV.410275.aMCNloP8_ttbar_dil_bfil.e5465a766a821p2952.TTHbbL24231.2l_sys.v3_out.root/user.ckilby.10606833._000105.out.root
/scratch4/ckilby/ProductionOutput/Jan17_TTHbbLeptonic-02-04-23-01/GridDownload_sys/user.ckilby.mc15_13TeV.410275.aMCNloP8_ttbar_dil_bfil.e5465a766a821p2952.TTHbbL24231.2l_sys.v3_out.root/user.ckilby.10606833._000106.out.root
