/scratch4/ckilby/ProductionOutput/Jan17_TTHbbLeptonic-02-04-23-01/GridDownload_sys/group.phys-higgs.mc15_13TeV.410155.aMCNloP8_ttW.e5070s2726r7772p2669.TTHbbL24231.2l_sys.v1_out.root/group.phys-higgs.10228172._000001.out.root
/scratch4/ckilby/ProductionOutput/Jan17_TTHbbLeptonic-02-04-23-01/GridDownload_sys/group.phys-higgs.mc15_13TeV.410155.aMCNloP8_ttW.e5070s2726r7772p2669.TTHbbL24231.2l_sys.v1_out.root/group.phys-higgs.10228172._000002.out.root
/scratch4/ckilby/ProductionOutput/Jan17_TTHbbLeptonic-02-04-23-01/GridDownload_sys/group.phys-higgs.mc15_13TeV.410155.aMCNloP8_ttW.e5070s2726r7772p2669.TTHbbL24231.2l_sys.v1_out.root/group.phys-higgs.10228172._000003.out.root
/scratch4/ckilby/ProductionOutput/Jan17_TTHbbLeptonic-02-04-23-01/GridDownload_sys/group.phys-higgs.mc15_13TeV.410155.aMCNloP8_ttW.e5070s2726r7772p2669.TTHbbL24231.2l_sys.v1_out.root/group.phys-higgs.10228172._000004.out.root
/scratch4/ckilby/ProductionOutput/Jan17_TTHbbLeptonic-02-04-23-01/GridDownload_sys/group.phys-higgs.mc15_13TeV.410155.aMCNloP8_ttW.e5070s2726r7772p2669.TTHbbL24231.2l_sys.v1_out.root/group.phys-higgs.10228172._000005.out.root
/scratch4/ckilby/ProductionOutput/Jan17_TTHbbLeptonic-02-04-23-01/GridDownload_sys/group.phys-higgs.mc15_13TeV.410155.aMCNloP8_ttW.e5070s2726r7772p2669.TTHbbL24231.2l_sys.v1_out.root/group.phys-higgs.10228172._000006.out.root
/scratch4/ckilby/ProductionOutput/Jan17_TTHbbLeptonic-02-04-23-01/GridDownload_sys/group.phys-higgs.mc15_13TeV.410155.aMCNloP8_ttW.e5070s2726r7772p2669.TTHbbL24231.2l_sys.v1_out.root/group.phys-higgs.10228172._000007.out.root
/scratch4/ckilby/ProductionOutput/Jan17_TTHbbLeptonic-02-04-23-01/GridDownload_sys/group.phys-higgs.mc15_13TeV.410155.aMCNloP8_ttW.e5070s2726r7772p2669.TTHbbL24231.2l_sys.v1_out.root/group.phys-higgs.10228172._000008.out.root
/scratch4/ckilby/ProductionOutput/Jan17_TTHbbLeptonic-02-04-23-01/GridDownload_sys/group.phys-higgs.mc15_13TeV.410155.aMCNloP8_ttW.e5070s2726r7772p2669.TTHbbL24231.2l_sys.v1_out.root/group.phys-higgs.10228172._000009.out.root
